{
    "key": "group_5c4734c4593f1",
    "title": "Whitepaper Content",
    "fields": [
        {
            "key": "field_5c4737d60ec6f",
            "label": "Full Width Header Banner Whitepaper Image",
            "name": "full_width_header_banner_image",
            "type": "image",
            "instructions": "This image with be bottom aligned to the banner.",
            "required": 0,
            "conditional_logic": 0,
            "wrapper": {
                "width": "",
                "class": "",
                "id": ""
            },
            "return_format": "array",
            "preview_size": "medium",
            "library": "all",
            "min_width": "",
            "min_height": "",
            "min_size": "",
            "max_width": "",
            "max_height": "",
            "max_size": "",
            "mime_types": ""
        },
        {
            "key": "field_5c4738180ec70",
            "label": "Full Width Header Banner Title",
            "name": "full_width_header_banner_title",
            "type": "text",
            "instructions": "",
            "required": 0,
            "conditional_logic": 0,
            "wrapper": {
                "width": "",
                "class": "",
                "id": ""
            },
            "default_value": "",
            "placeholder": "",
            "prepend": "",
            "append": "",
            "maxlength": ""
        },
        {
            "key": "field_5c4738240ec71",
            "label": "Full Width Header Banner Subtitle",
            "name": "full_width_header_banner_subtitle",
            "type": "text",
            "instructions": "",
            "required": 0,
            "conditional_logic": 0,
            "wrapper": {
                "width": "",
                "class": "",
                "id": ""
            },
            "default_value": "",
            "placeholder": "",
            "prepend": "",
            "append": "",
            "maxlength": ""
        },
        {
            "key": "field_5c4738390ec72",
            "label": "Full Width Header Banner Button",
            "name": "full_width_header_banner_button",
            "type": "link",
            "instructions": "Set the link and link text for the button in the popup modal.",
            "required": 0,
            "conditional_logic": 0,
            "wrapper": {
                "width": "",
                "class": "",
                "id": ""
            },
            "return_format": "array"
        },
        {
            "key": "field_5c473c310ec73",
            "label": "Top Content",
            "name": "top_content",
            "type": "wysiwyg",
            "instructions": "Paste a YouTube link to add a video.",
            "required": 0,
            "conditional_logic": 0,
            "wrapper": {
                "width": "",
                "class": "",
                "id": ""
            },
            "default_value": "",
            "tabs": "all",
            "toolbar": "full",
            "media_upload": 1,
            "delay": 0
        },
        {
            "key": "field_5c4c487fb5c6a",
            "label": "Quote Title",
            "name": "quote_title",
            "type": "text",
            "instructions": "",
            "required": 0,
            "conditional_logic": 0,
            "wrapper": {
                "width": "",
                "class": "",
                "id": ""
            },
            "default_value": "",
            "placeholder": "",
            "prepend": "",
            "append": "",
            "maxlength": ""
        },
        {
            "key": "field_5c4c4903b5c6b",
            "label": "Quote Text",
            "name": "quote_text",
            "type": "text",
            "instructions": "The full quote from the customer",
            "required": 0,
            "conditional_logic": 0,
            "wrapper": {
                "width": "",
                "class": "",
                "id": ""
            },
            "default_value": "",
            "placeholder": "",
            "prepend": "",
            "append": "",
            "maxlength": ""
        },
        {
            "key": "field_5c4c4915b5c6c",
            "label": "Quote Citation",
            "name": "quote_citation",
            "type": "text",
            "instructions": "The customer who made the quote.",
            "required": 0,
            "conditional_logic": 0,
            "wrapper": {
                "width": "",
                "class": "",
                "id": ""
            },
            "default_value": "",
            "placeholder": "",
            "prepend": "",
            "append": "",
            "maxlength": ""
        },
        {
            "key": "field_5c473c510ec74",
            "label": "Bottom Content",
            "name": "bottom_content",
            "type": "wysiwyg",
            "instructions": "Paste a YouTube link to add a video.",
            "required": 0,
            "conditional_logic": 0,
            "wrapper": {
                "width": "",
                "class": "",
                "id": ""
            },
            "default_value": "",
            "tabs": "all",
            "toolbar": "full",
            "media_upload": 1,
            "delay": 0
        },
        {
            "key": "field_5c474d0b0ec75",
            "label": "Full Width Footer Banner Title",
            "name": "full_width_footer_banner",
            "type": "text",
            "instructions": "",
            "required": 0,
            "conditional_logic": 0,
            "wrapper": {
                "width": "",
                "class": "",
                "id": ""
            },
            "default_value": "",
            "placeholder": "",
            "prepend": "",
            "append": "",
            "maxlength": ""
        },
        {
            "key": "field_5c474d2e0ec76",
            "label": "Full Width Footer Banner Button",
            "name": "full_width_footer_banner_button",
            "type": "link",
            "instructions": "Set the link and link text for the button in the popup modal.",
            "required": 0,
            "conditional_logic": 0,
            "wrapper": {
                "width": "",
                "class": "",
                "id": ""
            },
            "return_format": "array"
        },
        {
            "key": "field_5c474d3e0ec77",
            "label": "Full Width Footer Banner Demo Link",
            "name": "full_width_footer_banner_demo_link",
            "type": "link",
            "instructions": "",
            "required": 0,
            "conditional_logic": 0,
            "wrapper": {
                "width": "",
                "class": "",
                "id": ""
            },
            "return_format": "url"
        },
        {
            "key": "field_5c474d830ec79",
            "label": "Full Width Footer Banner Whitepaper Image",
            "name": "full_width_footer_banner_whitepaper_image",
            "type": "image",
            "instructions": "This image with be bottom aligned to the banner.",
            "required": 0,
            "conditional_logic": 0,
            "wrapper": {
                "width": "",
                "class": "",
                "id": ""
            },
            "return_format": "array",
            "preview_size": "medium",
            "library": "all",
            "min_width": "",
            "min_height": "",
            "min_size": "",
            "max_width": "",
            "max_height": "",
            "max_size": "",
            "mime_types": ""
        },
        {
            "key": "field_5c474db20ec7b",
            "label": "Sidebar Sticky Form Title",
            "name": "sidebar_sticky_form_title",
            "type": "text",
            "instructions": "",
            "required": 0,
            "conditional_logic": 0,
            "wrapper": {
                "width": "",
                "class": "",
                "id": ""
            },
            "default_value": "",
            "placeholder": "",
            "prepend": "",
            "append": "",
            "maxlength": ""
        },
        {
            "key": "field_5c474dbb0ec7c",
            "label": "Sidebar Sticky Form Subtitle",
            "name": "sidebar_sticky_form_subtitle",
            "type": "text",
            "instructions": "",
            "required": 0,
            "conditional_logic": 0,
            "wrapper": {
                "width": "",
                "class": "",
                "id": ""
            },
            "default_value": "",
            "placeholder": "",
            "prepend": "",
            "append": "",
            "maxlength": ""
        },
        {
            "key": "field_5c474d930ec7a",
            "label": "Sidebar Sticky Form",
            "name": "sidebar_sticky_form",
            "type": "gravity_forms_field",
            "instructions": "",
            "required": 0,
            "conditional_logic": 0,
            "wrapper": {
                "width": "",
                "class": "",
                "id": ""
            },
            "allow_null": 0,
            "allow_multiple": 0
        }
    ],
    "location": [
        [
            {
                "param": "page_template",
                "operator": "==",
                "value": "whitepaper.php"
            }
        ]
    ],
    "menu_order": -1,
    "position": "normal",
    "style": "default",
    "label_placement": "top",
    "instruction_placement": "label",
    "hide_on_screen": [
        "the_content"
    ],
    "active": 1,
    "description": "",
    "modified": 1548685070
}