{
    "key": "group_5a643138d3709",
    "title": "Partners",
    "fields": [
        {
            "key": "field_5a64314e4e1de",
            "label": "Info",
            "name": "",
            "type": "message",
            "instructions": "",
            "required": 0,
            "conditional_logic": 0,
            "wrapper": {
                "width": "",
                "class": "",
                "id": ""
            },
            "message": "You can edit partner links from the \"Partners\" option page in the main left hand admin menu.",
            "new_lines": "wpautop",
            "esc_html": 0
        }
    ],
    "location": [
        [
            {
                "param": "page_template",
                "operator": "==",
                "value": "partners.php"
            }
        ]
    ],
    "menu_order": -1,
    "position": "normal",
    "style": "default",
    "label_placement": "top",
    "instruction_placement": "label",
    "hide_on_screen": [
        "the_content"
    ],
    "active": 1,
    "description": "Page template fields",
    "modified": 1516569458
}