{
    "key": "group_5a65037ab3e14",
    "title": "Contact",
    "fields": [
        {
            "key": "field_5a65038a8c2de",
            "label": "Solutions Form",
            "name": "solutions_form",
            "type": "gravity_forms_field",
            "instructions": "",
            "required": 0,
            "conditional_logic": 0,
            "wrapper": {
                "width": "",
                "class": "",
                "id": ""
            },
            "allow_null": 1,
            "allow_multiple": 0
        },
        {
            "key": "field_5a6503ad8c2df",
            "label": "Services Form",
            "name": "services_form",
            "type": "gravity_forms_field",
            "instructions": "",
            "required": 0,
            "conditional_logic": 0,
            "wrapper": {
                "width": "",
                "class": "",
                "id": ""
            },
            "allow_null": 1,
            "allow_multiple": 0
        },
        {
            "key": "field_5a6503b68c2e0",
            "label": "Support Form",
            "name": "support_form",
            "type": "gravity_forms_field",
            "instructions": "",
            "required": 0,
            "conditional_logic": 0,
            "wrapper": {
                "width": "",
                "class": "",
                "id": ""
            },
            "allow_null": 1,
            "allow_multiple": 0
        }
    ],
    "location": [
        [
            {
                "param": "page_template",
                "operator": "==",
                "value": "contact.php"
            }
        ]
    ],
    "menu_order": -1,
    "position": "normal",
    "style": "default",
    "label_placement": "top",
    "instruction_placement": "label",
    "hide_on_screen": [
        "the_content"
    ],
    "active": 1,
    "description": "Page template fields",
    "modified": 1516569724
}