<?xml version="1.0" encoding="UTF-8"?>
<svg width="146px" height="86px" viewBox="0 0 146 86" version="1.1" xmlns="http://www.w3.org/2000/svg" xmlns:xlink="http://www.w3.org/1999/xlink">
    <!-- Generator: Sketch 48.2 (47327) - http://www.bohemiancoding.com/sketch -->
    <title>cloud-solutions</title>
    <desc>Created with Sketch.</desc>
    <defs></defs>
    <g id="Landing-Page---Solutions" stroke="none" stroke-width="1" fill="none" fill-rule="evenodd" transform="translate(-1334.000000, -1079.000000)">
        <g id="Cloud-Storage" transform="translate(836.000000, 994.000000)" fill="#FFFFFF">
            <g id="cloud-solutions">
                <path d="M546.790836,125.54845 C549.658256,125.54845 551.982448,123.212225 551.982448,120.351681 C551.982448,117.480823 549.656537,115.149755 546.790836,115.149755 C543.923416,115.149755 541.590629,117.480823 541.590629,120.351681 C541.590629,123.215663 543.923416,125.54845 546.790836,125.54845 M561.4941,158.553005 C561.470033,155.671832 559.720013,153.194643 557.246261,152.06349 L557.246261,144.286387 L548.743708,135.761485 L548.748865,128.929874 C552.664922,128.032516 555.604543,124.534195 555.604543,120.351681 C555.604543,115.484975 551.652385,111.531098 546.790836,111.531098 C541.936164,111.531098 537.973692,115.484975 537.973692,120.351681 C537.973692,124.480904 540.847988,127.936248 544.691844,128.885178 L544.691844,137.420394 L553.185802,145.948734 L553.185802,151.515105 C549.694357,152.053176 547.021193,155.075313 547.067608,158.724913 C547.112304,162.670194 550.345887,165.876272 554.282573,165.876272 L554.365089,165.876272 C556.288735,165.852205 558.093766,165.076901 559.44496,163.703359 C560.794436,162.321221 561.519886,160.490404 561.4941,158.553005 M643.831,140.731336 C643.831,156.632796 630.66631,170.05019 614.52246,170.05019 L613.270973,170.05019 L518.133827,170.05019 L517.633576,170.05019 C506.944356,170.05019 498,161.606085 498,150.42521 C498,142.725465 502.97157,135.017125 513.408085,133.029872 L513.408085,128.80782 C514.155883,120.374029 518.871311,113.413487 525.826695,109.186278 C532.288705,105.715462 543.969831,105.715462 543.969831,105.715462 C546.005218,100.128462 549.792344,95.6433911 554.516367,92.2722816 L554.516367,106.243218 L565.919003,117.745561 L565.919003,124.125055 C563.111751,125.091176 561.055735,127.731678 561.023073,130.853521 C560.997287,132.794359 561.722737,134.623456 563.079089,136.007313 C564.421688,137.387732 566.22328,138.163035 568.148646,138.187103 L568.232881,138.187103 C572.167847,138.187103 575.406588,134.967272 575.454722,131.028867 C575.490823,127.613061 573.154597,124.728451 569.982901,123.939394 L569.982901,116.153696 L558.575108,104.647915 L558.575108,89.7366434 C561.765714,88.0536672 565.239968,86.8331227 568.817367,86.0406284 L568.817367,99.5199092 L580.228598,111.073824 L580.228598,140.294691 C576.162982,141.066556 573.072082,144.645674 573.072082,148.943366 C573.072082,153.803196 577.025958,157.757072 581.885788,157.757072 C586.749056,157.757072 590.701214,153.803196 590.701214,148.943366 C590.701214,144.912131 587.978196,141.554774 584.285619,140.499261 L584.285619,109.488835 L572.879545,97.9761783 L572.879545,85.3340878 C576.307384,84.9111949 579.767886,84.8819706 583.114928,85.2911109 L583.114928,92.818948 L594.522722,104.395211 L594.522722,120.33449 C591.335553,121.056503 588.928846,123.889541 588.891026,127.295032 C588.863521,129.228994 589.59069,131.058091 590.943604,132.43851 C592.294798,133.818929 594.09639,134.587356 596.023476,134.61658 L596.104272,134.61658 C600.042677,134.61658 603.274541,131.403626 603.319237,127.461783 C603.358776,124.315872 601.368085,121.640989 598.578024,120.609543 L598.578024,102.77756 L587.171949,91.2975651 L587.171949,86.0199994 C605.297895,90.4208359 611.039611,111.429673 611.039611,111.429673 C631.414109,111.429673 643.831,124.594363 643.831,140.731336 M581.884069,143.736282 C584.746332,143.736282 587.079119,146.070789 587.079119,148.943366 C587.079119,151.800471 584.746332,154.134978 581.884069,154.134978 C579.023526,154.134978 576.690738,151.800471 576.690738,148.943366 C576.690738,146.070789 579.023526,143.736282 581.884069,143.736282"></path>
            </g>
        </g>
    </g>
</svg>