<svg width="50px" height="44px" viewBox="0 0 50 44" version="1.1" xmlns="http://www.w3.org/2000/svg" xmlns:xlink="http://www.w3.org/1999/xlink">
    <defs>
        <polygon id="path-1" points="0 43.6507937 0 0 50 0 50 43.6507937"></polygon>
    </defs>
    <g id="Landing-Page---Storage" stroke="none" stroke-width="1" fill="none" fill-rule="evenodd" transform="translate(-975.000000, -721.000000)">
        <g id="Buttons" transform="translate(199.000000, 683.000000)">
            <g id="Compliance" transform="translate(722.000000, 38.000000)">
                <g id="compliance" transform="translate(54.000000, 0.000000)">
                    <mask id="mask-2" fill="white">
                        <use xlink:href="#path-1"></use>
                    </mask>
                    <g id="Clip-2"></g>
                    <path d="M36.1979167,12.4465062 L25.03125,25.3732369 C24.3020833,26.2177695 23.0166667,26.3067766 22.175,25.5719505 L16.1,20.2605028 C15.2625,19.5298165 15.1833333,18.2630176 15.9229167,17.4350444 L16.0041667,17.3418974 C16.7395833,16.5180642 18.0041667,16.4394067 18.8375,17.1638832 L21.8041667,19.7409496 C22.64375,20.4716359 23.9229167,20.3826288 24.6520833,19.5422361 L33.10625,9.80320199 C33.8333333,8.96280925 35.1125,8.87173221 35.9520833,9.60034857 L35.99375,9.63760736 C36.8270833,10.357944 36.91875,11.6123233 36.1979167,12.4465062 M47.9875,0 L2.0125,0 C0.902083333,0 0,0.896280925 0,2.00162507 L0,33.1499746 C0,34.2553188 0.902083333,35.1515997 2.0125,35.1515997 L6.32083333,35.1515997 C7.43125,35.1515997 8.33333333,36.0458107 8.33333333,37.1511548 L8.33333333,41.6449791 C8.33333333,43.2760862 10.1875,44.2220455 11.51875,43.2719463 L22.3916667,35.5241876 C22.7333333,35.2799356 23.1416667,35.1515997 23.5645833,35.1515997 L47.9875,35.1515997 C49.0979167,35.1515997 50,34.2553188 50,33.1499746 L50,2.00162507 C50,0.896280925 49.0979167,0 47.9875,0" id="Fill-1" fill="#9B9B9B" mask="url(#mask-2)"></path>
                </g>
            </g>
        </g>
    </g>
</svg>