<?xml version="1.0" encoding="UTF-8"?>
<svg width="62px" height="53px" viewBox="0 0 62 53" version="1.1" xmlns="http://www.w3.org/2000/svg" xmlns:xlink="http://www.w3.org/1999/xlink">
    <!-- Generator: Sketch 48.2 (47327) - http://www.bohemiancoding.com/sketch -->
    <title>data-analytics</title>
    <desc>Created with Sketch.</desc>
    <defs>
        <polygon id="path-1" points="22.855 3.8094 22.855 0.1214 0.9514 0.1214 0.9514 3.8094 22.855 3.8094"></polygon>
        <polygon id="path-3" points="19.855 3.8851 19.855 0.1971 0.7334 0.1971 0.7334 3.8851 19.855 3.8851"></polygon>
        <polygon id="path-5" points="28.855 0.2723 28.855 3.9603 0.8671 3.9603 0.8671 0.2723 28.855 0.2723"></polygon>
        <polygon id="path-7" points="0 52.1869 61.855 52.1869 61.855 -0.0001 0 -0.0001"></polygon>
    </defs>
    <g id="Landing-Page---Data-Management" stroke="none" stroke-width="1" fill="none" fill-rule="evenodd" transform="translate(-1458.000000, -748.000000)">
        <g id="Buttons" transform="translate(99.000000, 705.000000)">
            <g id="E-Discovery-Button-Copy" transform="translate(1314.000000, 43.000000)">
                <g id="data-analytics" transform="translate(45.000000, 0.000000)">
                    <g id="Group-3" transform="translate(39.000000, 4.186900)">
                        <mask id="mask-2" fill="white">
                            <use xlink:href="#path-1"></use>
                        </mask>
                        <g id="Clip-2"></g>
                        <path d="M22.8554,0.1214 L0.9514,0.1214 C1.7254,1.2694 2.3784,2.5064 2.9004,3.8094 L22.8554,3.8094 L22.8554,0.1214 Z" id="Fill-1" fill="#9B9B9B" mask="url(#mask-2)"></path>
                    </g>
                    <g id="Group-6" transform="translate(42.000000, 16.186900)">
                        <mask id="mask-4" fill="white">
                            <use xlink:href="#path-3"></use>
                        </mask>
                        <g id="Clip-5"></g>
                        <path d="M19.8554,3.8851 L19.8554,0.1971 L1.2844,0.1971 C1.2164,1.4621 1.0284,2.6951 0.7334,3.8851 L19.8554,3.8851 Z" id="Fill-4" fill="#9B9B9B" mask="url(#mask-4)"></path>
                    </g>
                    <g id="Group-9" transform="translate(33.000000, 28.186900)">
                        <mask id="mask-6" fill="white">
                            <use xlink:href="#path-5"></use>
                        </mask>
                        <g id="Clip-8"></g>
                        <path d="M0.8671,3.9603 L28.8551,3.9603 L28.8551,0.2723 L5.2911,0.2723 C4.0071,1.7063 2.5181,2.9523 0.8671,3.9603" id="Fill-7" fill="#9B9B9B" mask="url(#mask-6)"></path>
                    </g>
                    <mask id="mask-8" fill="white">
                        <use xlink:href="#path-7"></use>
                    </mask>
                    <g id="Clip-11"></g>
                    <path id="Fill-10" fill="#9B9B9B" mask="url(#mask-8)" points="27.091 44.2229 61.856 44.2229 61.856 40.5349 27.091 40.5349"></path>
                    <path d="M14.2988,9.7604 C11.2278,14.9034 12.9058,21.5614 18.0478,24.6314 C23.1918,27.7044 29.8468,26.0254 32.9188,20.8834 C35.9898,15.7394 34.3108,9.0834 29.1698,6.0114 C24.0268,2.9404 17.3698,4.6184 14.2988,9.7604 M10.4578,7.4654 C14.7948,0.2014 24.1998,-2.1686 31.4638,2.1694 C38.7278,6.5074 41.0998,15.9124 36.7618,23.1764 C32.7168,29.9474 24.2768,32.4594 17.2658,29.2604 L13.1298,36.1864 C13.8408,37.1244 14.0368,38.2644 13.5128,39.1414 L6.3898,51.0684 C5.6418,52.3234 3.7238,52.5574 2.1108,51.5924 L1.8648,51.4484 C0.2518,50.4854 -0.4492,48.6864 0.3008,47.4314 L7.4238,35.5044 C7.9478,34.6254 9.0428,34.2584 10.2058,34.4414 L14.3428,27.5154 C8.2028,22.8604 6.4128,14.2364 10.4578,7.4654" id="Fill-12" fill="#9B9B9B" mask="url(#mask-8)"></path>
                </g>
            </g>
        </g>
    </g>
</svg>