<?xml version="1.0" encoding="UTF-8"?>
<svg width="89px" height="88px" viewBox="0 0 89 88" version="1.1" xmlns="http://www.w3.org/2000/svg" xmlns:xlink="http://www.w3.org/1999/xlink">
    <!-- Generator: Sketch 48.2 (47327) - http://www.bohemiancoding.com/sketch -->
    <title>solutions</title>
    <desc>Created with Sketch.</desc>
    <defs>
        <polygon id="path-1" points="7.25730464e-20 0 89 0 89 88 1.31881191e-14 88"></polygon>
    </defs>
    <g id="Landing-Page---Contact-Us" stroke="none" stroke-width="1" fill="none" fill-rule="evenodd" transform="translate(-359.000000, -538.000000)">
        <g id="Storage" transform="translate(246.000000, 479.000000)">
            <g id="solutions" transform="translate(113.000000, 59.000000)">
                <mask id="mask-2" fill="white">
                    <use xlink:href="#path-1"></use>
                </mask>
                <g id="Clip-2"></g>
                <path d="M80.3036206,49.5433918 C77.7064876,49.5433918 75.3811164,50.6937802 73.7880297,52.5088374 L59.7005911,45.4948321 C60.1129195,44.2986973 60.3498744,43.0191426 60.3498744,41.681732 C60.3498744,40.1223167 60.0379507,38.6369029 59.4863946,37.2766192 L74.0049037,28.1636597 C75.5886193,29.8387866 77.8216182,30.8882637 80.3036206,30.8882637 C85.1069779,30.8882637 89,26.9755978 89,22.1480032 C89,17.3204085 85.1069779,13.4063972 80.3036206,13.4063972 C75.5002632,13.4063972 71.6072412,17.3204085 71.6072412,22.1480032 C71.6072412,23.221699 71.8080504,24.2456119 72.1614747,25.1968687 L57.7032084,34.2721546 C55.7125194,31.8462479 52.7619621,30.257232 49.4365608,30.0621369 L48.3214001,17.118586 C51.9225794,16.0489267 54.5518419,12.7054003 54.5518419,8.74026053 C54.5518419,3.91401138 50.6574811,0 45.8554625,0 C41.0507664,0 37.1577443,3.91401138 37.1577443,8.74026053 C37.1577443,13.2287933 40.5233074,16.9208 44.8567711,17.4199743 L45.9719318,30.379671 C40.9142161,31.6323161 37.1577443,36.2109963 37.1577443,41.681732 C37.1577443,43.4470063 37.5593628,45.1140603 38.258179,46.6129289 L25.686181,54.6804477 C23.6499752,52.1953397 20.8065161,50.4071922 17.5614386,49.7035044 L18.8640213,35.6499297 C24.9552353,35.2987585 29.7907222,30.2397407 29.7907222,24.0303345 C29.7907222,17.5921962 24.6004723,12.3757568 18.1946571,12.3757568 C11.7901807,12.3757568 6.59859208,17.5921962 6.59859208,24.0303345 C6.59859208,29.4956883 10.3483702,34.0703321 15.400731,35.3283591 L14.0968096,49.3913522 C6.278636,49.6052841 0,56.0272766 0,63.9387193 C0,71.9820194 6.49015508,78.5049232 14.4944119,78.5049232 C20.368752,78.5049232 25.4144192,74.986484 27.6902574,69.9382301 L42.3372843,74.5640022 C42.2475895,75.1452511 42.1873468,75.7372638 42.1873468,76.3454223 C42.1873468,82.7822152 47.3789353,88 53.7834118,88 C60.189227,88 65.3794768,82.7822152 65.3794768,76.3454223 C65.3794768,69.9099749 60.189227,64.6908446 53.7834118,64.6908446 C49.2076383,64.6908446 45.2637445,67.3616293 43.3774763,71.2285487 L28.7344655,66.6041221 C28.8951129,65.7389762 28.9888239,64.8496116 28.9888239,63.9387193 C28.9888239,61.6769617 28.4600262,59.5457159 27.5470134,57.6351293 L40.1913028,49.5205186 C42.3105098,51.8589689 45.3574555,53.3349642 48.7538094,53.3349642 C52.5825725,53.3349642 55.965539,51.4620513 58.0780524,48.5880986 L72.0490215,55.5429026 C71.7652111,56.406703 71.6072412,57.3256682 71.6072412,58.2836524 C71.6072412,63.1099015 75.5002632,67.0252584 80.3036206,67.0252584 C85.1069779,67.0252584 89,63.1099015 89,58.2836524 C89,53.4560577 85.1069779,49.5433918 80.3036206,49.5433918" id="Fill-1" fill="#FF4612" mask="url(#mask-2)"></path>
            </g>
        </g>
    </g>
</svg>