<?xml version="1.0" encoding="UTF-8"?>
<svg width="114px" height="95px" viewBox="0 0 114 95" version="1.1" xmlns="http://www.w3.org/2000/svg" xmlns:xlink="http://www.w3.org/1999/xlink">
    <!-- Generator: Sketch 48.2 (47327) - http://www.bohemiancoding.com/sketch -->
    <title>storage</title>
    <desc>Created with Sketch.</desc>
    <defs></defs>
    <g id="Landing-Page---Assessment" stroke="none" stroke-width="1" fill="none" fill-rule="evenodd" transform="translate(-656.000000, -1249.000000)">
        <g id="Storage-Assessment" transform="translate(139.000000, 1165.000000)" fill="#FFFFFF">
            <g id="Oval-7" transform="translate(409.000000, -33.000000)">
                <g id="storage" transform="translate(108.000000, 117.000000)">
                    <path d="M5.82276923,22.1449846 L51.1754769,22.1449846 L51.1754769,16.8448 L5.82276923,16.8448 L5.82276923,22.1449846 Z M105.086954,16.0142769 C103.126154,16.0142769 101.540677,17.5719385 101.540677,19.4966154 C101.540677,21.4195692 103.126154,22.9789538 105.086954,22.9789538 C107.046,22.9789538 108.631477,21.4195692 108.631477,19.4966154 C108.631477,17.5719385 107.046,16.0142769 105.086954,16.0142769 Z M105.086954,5.78953846 C103.126154,5.78953846 101.540677,7.34892308 101.540677,9.2736 C101.540677,11.2 103.126154,12.7576615 105.086954,12.7576615 C107.046,12.7576615 108.631477,11.2 108.631477,9.2736 C108.631477,7.34892308 107.046,5.78953846 105.086954,5.78953846 Z M114,24.8295385 C114,26.5801846 112.554831,28 110.772923,28 L3.22532308,28 C1.44341538,28 0,26.5801846 0,24.8295385 L0,3.16873846 C0,1.41981538 1.44341538,0 3.22532308,0 L110.772923,0 C112.554831,0 114,1.41981538 114,3.16873846 L114,24.8295385 Z" id="Fill-1"></path>
                    <path d="M5.82276923,56.933719 L51.1754769,56.933719 L51.1754769,51.445689 L5.82276923,51.445689 L5.82276923,56.933719 Z M105.086954,50.5800972 C103.126154,50.5800972 101.540677,52.198843 101.540677,54.1905963 C101.540677,56.1823497 103.126154,57.8010955 105.086954,57.8010955 C107.046,57.8010955 108.631477,56.1823497 108.631477,54.1905963 C108.631477,52.198843 107.046,50.5800972 105.086954,50.5800972 Z M105.086954,39.9931073 C103.126154,39.9931073 101.540677,41.611853 101.540677,43.6036064 C101.540677,45.5953597 103.126154,47.2141055 105.086954,47.2141055 C107.046,47.2141055 108.631477,45.5953597 108.631477,43.6036064 C108.631477,41.611853 107.046,39.9931073 105.086954,39.9931073 Z M114,59.7161056 C114,61.5329559 112.554831,63 110.772923,63 L3.22532308,63 C1.44341538,63 0,61.5329559 0,59.7161056 L0,37.2821097 C0,35.4688289 1.44341538,34 3.22532308,34 L110.772923,34 C112.554831,34 114,35.4688289 114,37.2821097 L114,59.7161056 Z" id="Fill-3"></path>
                    <path d="M5.82276923,89.1429011 L51.1754769,89.1429011 L51.1754769,83.8441135 L5.82276923,83.8441135 L5.82276923,89.1429011 Z M105.086954,83.0083697 C103.126154,83.0083697 101.540677,84.5678503 101.540677,86.4909225 C101.540677,88.4191643 103.126154,89.9751985 105.086954,89.9751985 C107.046,89.9751985 108.631477,88.4191643 108.631477,86.4909225 C108.631477,84.5678503 107.046,83.0083697 105.086954,83.0083697 Z M105.086954,72.7864484 C103.126154,72.7864484 101.540677,74.345929 101.540677,76.2724475 C101.540677,78.1972429 103.126154,79.7532771 105.086954,79.7532771 C107.046,79.7532771 108.631477,78.1972429 108.631477,76.2724475 C108.631477,74.345929 107.046,72.7864484 105.086954,72.7864484 Z M114,91.8310665 C114,93.5835436 112.554831,95 110.772923,95 L3.22532308,95 C1.44341538,95 0,93.5835436 0,91.8310665 L0,70.1689335 C0,68.4181796 1.44341538,67 3.22532308,67 L110.772923,67 C112.554831,67 114,68.4181796 114,70.1689335 L114,91.8310665 Z" id="Fill-4"></path>
                </g>
            </g>
        </g>
    </g>
</svg>