<?xml version="1.0" encoding="UTF-8"?>
<svg width="114px" height="113px" viewBox="0 0 114 113" version="1.1" xmlns="http://www.w3.org/2000/svg" xmlns:xlink="http://www.w3.org/1999/xlink">
    <!-- Generator: Sketch 48.2 (47327) - http://www.bohemiancoding.com/sketch -->
    <title>virtualization</title>
    <desc>Created with Sketch.</desc>
    <defs></defs>
    <g id="Landing-Page---Solutions" stroke="none" stroke-width="1" fill="none" fill-rule="evenodd" transform="translate(-656.000000, -1060.000000)">
        <g id="Virtualization" transform="translate(139.000000, 994.000000)" fill="#FFFFFF">
            <g id="Oval-7">
                <g id="virtualization" transform="translate(517.000000, 66.000000)">
                    <path d="M9.91947372,15.7015183 L43.0823517,15.7015183 L43.0823517,10.5971772 L9.91947372,10.5971772 L9.91947372,15.7015183 Z M26.6569884,31.7450609 C24.5851071,31.7450609 22.9056968,30.0349394 22.9056968,27.9251698 C22.9056968,25.8209768 24.5851071,24.1108552 26.6569884,24.1108552 C28.7270442,24.1108552 30.4046291,25.8209768 30.4046291,27.9251698 C30.4046291,30.0349394 28.7270442,31.7450609 26.6569884,31.7450609 Z M53,55.6347157 L53,3.05777171 C53,1.36809725 51.6564717,0 50.0026176,0 L3.00103327,0 C1.33987739,0 0,1.36809725 0,3.05777171 L0,109.945946 C0,111.631903 1.33987739,113 3.00103327,113 L50.0026176,113 C51.6564717,113 53,111.631903 53,109.945946 L53,74.5241236 L34.1066336,74.5241236 L34.1066336,86.004244 L33.9697251,86.004244 L14.1672866,65.0775608 L33.9697251,44.1508776 L34.1066336,44.1508776 L34.1066336,55.6347157 L53,55.6347157 Z" id="Fill-1"></path>
                    <path d="M70.9191321,15.7015183 L104.080868,15.7015183 L104.080868,10.5971772 L70.9191321,10.5971772 L70.9191321,15.7015183 Z M83.5945927,27.9251698 C83.5945927,25.8209768 85.2739452,24.1108552 87.3457551,24.1108552 C89.417565,24.1108552 91.0950921,25.8209768 91.0950921,27.9251698 C91.0950921,30.0349394 89.417565,31.7450609 87.3457551,31.7450609 C85.2739452,31.7450609 83.5945927,30.0349394 83.5945927,27.9251698 Z M79.8963665,55.6347157 L79.8963665,44.1508776 L80.0296194,44.1508776 L99.8332013,65.0775608 L80.0296194,86.004244 L79.8963665,86.004244 L79.8963665,74.5241236 L61,74.5241236 L61,109.945946 C61,111.631903 62.3453074,113 64.0009299,113 L111.000895,113 C112.658343,113 114,111.631903 114,109.945946 L114,3.05777171 C114,1.36809725 112.658343,0 111.000895,0 L64.0009299,0 C62.3453074,0 61,1.36809725 61,3.05777171 L61,55.6347157 L79.8963665,55.6347157 Z" id="Fill-3"></path>
                </g>
            </g>
        </g>
    </g>
</svg>