<?xml version="1.0" encoding="UTF-8"?>
<svg width="19px" height="15px" viewBox="0 0 19 15" version="1.1" xmlns="http://www.w3.org/2000/svg" xmlns:xlink="http://www.w3.org/1999/xlink">
    <g id="Symbols" stroke="none" stroke-width="1" fill="none" fill-rule="evenodd">
        <g id="Structure/Header" transform="translate(-1169.000000, -64.000000)" fill-rule="nonzero" fill="#9B9B9B">
            <path d="M1188,65.7757896 C1187.30096,66.0772662 1186.54967,66.2803015 1185.76117,66.3718212 C1186.56629,65.9034557 1187.18458,65.1613002 1187.47512,64.2768663 C1186.72225,64.7106235 1185.88783,65.0259434 1184.99958,65.1959085 C1184.28946,64.4599057 1183.27533,64 1182.15433,64 C1179.63763,64 1177.78829,66.2810705 1178.35671,68.6490463 C1175.118,68.4913864 1172.24583,66.9840033 1170.32288,64.6929348 C1169.30163,66.3948934 1169.79325,68.6213597 1171.52858,69.7488208 C1170.8905,69.7288249 1170.28883,69.5588597 1169.76396,69.2750718 C1169.72121,71.0293273 1171.01558,72.6705291 1172.89025,73.0358388 C1172.34163,73.1804245 1171.74075,73.2142637 1171.12958,73.1004409 C1171.62517,74.6047477 1173.06442,75.6991386 1174.77125,75.7299016 C1173.1325,76.9781071 1171.06783,77.535685 1169,77.2988105 C1170.72504,78.3732055 1172.77467,79 1174.9755,79 C1182.21292,79 1186.30188,73.0619873 1186.05488,67.7361567 C1186.81646,67.2016509 1187.4775,66.5348646 1188,65.7757896 Z" id="Shape"></path>
        </g>
    </g>
</svg>