<svg width="47px" height="50px" viewBox="0 0 47 50" version="1.1" xmlns="http://www.w3.org/2000/svg" xmlns:xlink="http://www.w3.org/1999/xlink">
    <g id="Landing-Page---Cloud" stroke="none" stroke-width="1" fill="none" fill-rule="evenodd" transform="translate(-670.000000, -722.000000)">
        <g id="Buttons" transform="translate(250.000000, 683.000000)" fill="#9B9B9B" fill-rule="nonzero">
            <g id="Dash-Button" transform="translate(364.666667, 39.000000)">
                <path d="M83.1818182,41.6666667 L74.8181818,33.3333333 L74.8181818,39.5833333 L68.5454545,39.5833333 C66.2391818,39.5833333 64.3636364,37.7145833 64.3636364,35.4166667 L64.3636364,14.2 C66.7953636,13.3395833 68.5454545,11.0520833 68.5454545,8.33333333 C68.5454545,4.88125 65.7373636,2.08333333 62.2727273,2.08333333 C58.8080909,2.08333333 56,4.88125 56,8.33333333 C56,11.0520833 57.7500909,13.3395833 60.1818182,14.2 L60.1818182,35.4166667 C60.1818182,40.0125 63.9329091,43.75 68.5454545,43.75 L74.8181818,43.75 L74.8181818,50 L83.1818182,41.6666667 Z M58.5090909,8.33333333 C58.5090909,6.26458333 60.1964545,4.58333333 62.2727273,4.58333333 C64.349,4.58333333 66.0363636,6.26458333 66.0363636,8.33333333 C66.0363636,10.4020833 64.349,12.0833333 62.2727273,12.0833333 C60.1964545,12.0833333 58.5090909,10.4020833 58.5090909,8.33333333 Z M74.8181818,8.33333333 L83.1818182,16.6666667 L83.1818182,10.4166667 L89.4545455,10.4166667 C91.7608182,10.4166667 93.6363636,12.2854167 93.6363636,14.5833333 L93.6363636,35.8 C91.2046364,36.6604167 89.4545455,38.95 89.4545455,41.6666667 C89.4545455,45.11875 92.2626364,47.9166667 95.7272727,47.9166667 C99.1919091,47.9166667 102,45.11875 102,41.6666667 C102,38.9479167 100.249909,36.6604167 97.8181818,35.8 L97.8181818,14.5833333 C97.8181818,9.9875 94.0670909,6.25 89.4545455,6.25 L83.1818182,6.25 L83.1818182,0 L74.8181818,8.33333333 Z M99.4909091,41.6666667 C99.4909091,43.7354167 97.8035455,45.4166667 95.7272727,45.4166667 C93.651,45.4166667 91.9636364,43.7354167 91.9636364,41.6666667 C91.9636364,39.5979167 93.651,37.9166667 95.7272727,37.9166667 C97.8035455,37.9166667 99.4909091,39.5979167 99.4909091,41.6666667 Z"></path>
            </g>
        </g>
    </g>
</svg>